[
  {
    "tenantId": "{{rdmTenant}}",
    "type": "rdm/lookupTypes/State",
    "code": "BW",
    "enabled": true,
    "sourceMappings": [
        {
            "source": "Reltio",
            "values": [
                {
                    "code": "BW",
                    "value": "Baden-Württemberg",
                    "enabled": true,
                    "canonicalValue": true,
                    "downStreamDefaultValue": true
                }
            ]
        },
        {
            "source": "ReltioRDM",
            "values": [
                {
                    "code": "BW",
                    "value": "Baden-Württemberg",
                    "enabled": true,
                    "canonicalValue": false,
                    "downStreamDefaultValue": true
                }
            ]
        }
    ],
    "localizations": [],
    "parents": ["rdm/lookupTypes/Country/DE"],
    "startDate": 0,
    "endDate": 0
  },
  {
    "tenantId": "{{rdmTenant}}",
    "type": "rdm/lookupTypes/State",
    "code": "BY",
    "enabled": true,
    "sourceMappings": [
        {
            "source": "Reltio",
            "values": [
                {
                    "code": "BY",
                    "value": "Bavaria",
                    "enabled": true,
                    "canonicalValue": true,
                    "downStreamDefaultValue": true
                }
            ]
        },
        {
            "source": "ReltioRDM",
            "values": [
                {
                    "code": "BY",
                    "value": "Bavaria",
                    "enabled": true,
                    "canonicalValue": false,
                    "downStreamDefaultValue": true
                }
            ]
        }
    ],
    "localizations": [],
    "parents": ["rdm/lookupTypes/Country/DE"],
    "startDate": 0,
    "endDate": 0
  },
  {
    "tenantId": "{{rdmTenant}}",
    "type": "rdm/lookupTypes/State",
    "code": "BE",
    "enabled": true,
    "sourceMappings": [
        {
            "source": "Reltio",
            "values": [
                {
                    "code": "BE",
                    "value": "Berlin",
                    "enabled": true,
                    "canonicalValue": true,
                    "downStreamDefaultValue": true
                }
            ]
        },
        {
            "source": "ReltioRDM",
            "values": [
                {
                    "code": "BE",
                    "value": "Berlin",
                    "enabled": true,
                    "canonicalValue": false,
                    "downStreamDefaultValue": true
                }
            ]
        }
    ],
    "localizations": [],
    "parents": ["rdm/lookupTypes/Country/DE"],
    "startDate": 0,
    "endDate": 0
  },
  {
    "tenantId": "{{rdmTenant}}",
    "type": "rdm/lookupTypes/State",
    "code": "BB",
    "enabled": true,
    "sourceMappings": [
        {
            "source": "Reltio",
            "values": [
                {
                    "code": "BB",
                    "value": "Brandenburg",
                    "enabled": true,
                    "canonicalValue": true,
                    "downStreamDefaultValue": true
                }
            ]
        },
        {
            "source": "ReltioRDM",
            "values": [
                {
                    "code": "BB",
                    "value": "Brandenburg",
                    "enabled": true,
                    "canonicalValue": false,
                    "downStreamDefaultValue": true
                }
            ]
        }
    ],
    "localizations": [],
    "parents": ["rdm/lookupTypes/Country/DE"],
    "startDate": 0,
    "endDate": 0
  },
  {
    "tenantId": "{{rdmTenant}}",
    "type": "rdm/lookupTypes/State",
    "code": "HB",
    "enabled": true,
    "sourceMappings": [
        {
            "source": "Reltio",
            "values": [
                {
                    "code": "HB",
                    "value": "Bremen",
                    "enabled": true,
                    "canonicalValue": true,
                    "downStreamDefaultValue": true
                }
            ]
        },
        {
            "source": "ReltioRDM",
            "values": [
                {
                    "code": "HB",
                    "value": "Bremen",
                    "enabled": true,
                    "canonicalValue": false,
                    "downStreamDefaultValue": true
                }
            ]
        }
    ],
    "localizations": [],
    "parents": ["rdm/lookupTypes/Country/DE"],
    "startDate": 0,
    "endDate": 0
  },
  {
    "tenantId": "{{rdmTenant}}",
    "type": "rdm/lookupTypes/State",
    "code": "HH",
    "enabled": true,
    "sourceMappings": [
        {
            "source": "Reltio",
            "values": [
                {
                    "code": "HH",
                    "value": "Hamburg",
                    "enabled": true,
                    "canonicalValue": true,
                    "downStreamDefaultValue": true
                }
            ]
        },
        {
            "source": "ReltioRDM",
            "values": [
                {
                    "code": "HH",
                    "value": "Hamburg",
                    "enabled": true,
                    "canonicalValue": false,
                    "downStreamDefaultValue": true
                }
            ]
        }
    ],
    "localizations": [],
    "parents": ["rdm/lookupTypes/Country/DE"],
    "startDate": 0,
    "endDate": 0
  },
  {
    "tenantId": "{{rdmTenant}}",
    "type": "rdm/lookupTypes/State",
    "code": "HE",
    "enabled": true,
    "sourceMappings": [
        {
            "source": "Reltio",
            "values": [
                {
                    "code": "HE",
                    "value": "Hesse",
                    "enabled": true,
                    "canonicalValue": true,
                    "downStreamDefaultValue": true
                }
            ]
        },
        {
            "source": "ReltioRDM",
            "values": [
                {
                    "code": "HE",
                    "value": "Hesse",
                    "enabled": true,
                    "canonicalValue": false,
                    "downStreamDefaultValue": true
                }
            ]
        }
    ],
    "localizations": [],
    "parents": ["rdm/lookupTypes/Country/DE"],
    "startDate": 0,
    "endDate": 0
  },
  {
    "tenantId": "{{rdmTenant}}",
    "type": "rdm/lookupTypes/State",
    "code": "NI",
    "enabled": true,
    "sourceMappings": [
        {
            "source": "Reltio",
            "values": [
                {
                    "code": "NI",
                    "value": "Lower Saxony",
                    "enabled": true,
                    "canonicalValue": true,
                    "downStreamDefaultValue": true
                }
            ]
        },
        {
            "source": "ReltioRDM",
            "values": [
                {
                    "code": "NI",
                    "value": "Lower Saxony",
                    "enabled": true,
                    "canonicalValue": false,
                    "downStreamDefaultValue": true
                }
            ]
        }
    ],
    "localizations": [],
    "parents": ["rdm/lookupTypes/Country/DE"],
    "startDate": 0,
    "endDate": 0
  },
  {
    "tenantId": "{{rdmTenant}}",
    "type": "rdm/lookupTypes/State",
    "code": "MV",
    "enabled": true,
    "sourceMappings": [
        {
            "source": "Reltio",
            "values": [
                {
                    "code": "MV",
                    "value": "Mecklenburg-Vorpommern",
                    "enabled": true,
                    "canonicalValue": true,
                    "downStreamDefaultValue": true
                }
            ]
        },
        {
            "source": "ReltioRDM",
            "values": [
                {
                    "code": "MV",
                    "value": "Mecklenburg-Vorpommern",
                    "enabled": true,
                    "canonicalValue": false,
                    "downStreamDefaultValue": true
                }
            ]
        }
    ],
    "localizations": [],
    "parents": ["rdm/lookupTypes/Country/DE"],
    "startDate": 0,
    "endDate": 0
  },
  {
    "tenantId": "{{rdmTenant}}",
    "type": "rdm/lookupTypes/State",
    "code": "NW",
    "enabled": true,
    "sourceMappings": [
        {
            "source": "Reltio",
            "values": [
                {
                    "code": "NW",
                    "value": "North Rhine- Westphalia",
                    "enabled": true,
                    "canonicalValue": true,
                    "downStreamDefaultValue": true
                }
            ]
        },
        {
            "source": "ReltioRDM",
            "values": [
                {
                    "code": "NW",
                    "value": "North Rhine- Westphalia",
                    "enabled": true,
                    "canonicalValue": false,
                    "downStreamDefaultValue": true
                }
            ]
        }
    ],
    "localizations": [],
    "parents": ["rdm/lookupTypes/Country/DE"],
    "startDate": 0,
    "endDate": 0
  },
  {
    "tenantId": "{{rdmTenant}}",
    "type": "rdm/lookupTypes/State",
    "code": "RP",
    "enabled": true,
    "sourceMappings": [
        {
            "source": "Reltio",
            "values": [
                {
                    "code": "RP",
                    "value": "Rhineland-Palatinate",
                    "enabled": true,
                    "canonicalValue": true,
                    "downStreamDefaultValue": true
                }
            ]
        },
        {
            "source": "ReltioRDM",
            "values": [
                {
                    "code": "RP",
                    "value": "Rhineland-Palatinate",
                    "enabled": true,
                    "canonicalValue": false,
                    "downStreamDefaultValue": true
                }
            ]
        }
    ],
    "localizations": [],
    "parents": ["rdm/lookupTypes/Country/DE"],
    "startDate": 0,
    "endDate": 0
  },
  {
    "tenantId": "{{rdmTenant}}",
    "type": "rdm/lookupTypes/State",
    "code": "SL",
    "enabled": true,
    "sourceMappings": [
        {
            "source": "Reltio",
            "values": [
                {
                    "code": "SL",
                    "value": "Saarland",
                    "enabled": true,
                    "canonicalValue": true,
                    "downStreamDefaultValue": true
                }
            ]
        },
        {
            "source": "ReltioRDM",
            "values": [
                {
                    "code": "SL",
                    "value": "Saarland",
                    "enabled": true,
                    "canonicalValue": false,
                    "downStreamDefaultValue": true
                }
            ]
        }
    ],
    "localizations": [],
    "parents": ["rdm/lookupTypes/Country/DE"],
    "startDate": 0,
    "endDate": 0
  },
  {
    "tenantId": "{{rdmTenant}}",
    "type": "rdm/lookupTypes/State",
    "code": "SN",
    "enabled": true,
    "sourceMappings": [
        {
            "source": "Reltio",
            "values": [
                {
                    "code": "SN",
                    "value": "Saxony",
                    "enabled": true,
                    "canonicalValue": true,
                    "downStreamDefaultValue": true
                }
            ]
        },
        {
            "source": "ReltioRDM",
            "values": [
                {
                    "code": "SN",
                    "value": "Saxony",
                    "enabled": true,
                    "canonicalValue": false,
                    "downStreamDefaultValue": true
                }
            ]
        }
    ],
    "localizations": [],
    "parents": ["rdm/lookupTypes/Country/DE"],
    "startDate": 0,
    "endDate": 0
  },
  {
    "tenantId": "{{rdmTenant}}",
    "type": "rdm/lookupTypes/State",
    "code": "ST",
    "enabled": true,
    "sourceMappings": [
        {
            "source": "Reltio",
            "values": [
                {
                    "code": "ST",
                    "value": "Saxony-Anhalt",
                    "enabled": true,
                    "canonicalValue": true,
                    "downStreamDefaultValue": true
                }
            ]
        },
        {
            "source": "ReltioRDM",
            "values": [
                {
                    "code": "ST",
                    "value": "Saxony-Anhalt",
                    "enabled": true,
                    "canonicalValue": false,
                    "downStreamDefaultValue": true
                }
            ]
        }
    ],
    "localizations": [],
    "parents": ["rdm/lookupTypes/Country/DE"],
    "startDate": 0,
    "endDate": 0
  },
  {
    "tenantId": "{{rdmTenant}}",
    "type": "rdm/lookupTypes/State",
    "code": "ST",
    "enabled": true,
    "sourceMappings": [
        {
            "source": "Reltio",
            "values": [
                {
                    "code": "SH",
                    "value": "Schleswig-Holstein",
                    "enabled": true,
                    "canonicalValue": true,
                    "downStreamDefaultValue": true
                }
            ]
        },
        {
            "source": "ReltioRDM",
            "values": [
                {
                    "code": "ST",
                    "value": "Schleswig-Holstein",
                    "enabled": true,
                    "canonicalValue": false,
                    "downStreamDefaultValue": true
                }
            ]
        }
    ],
    "localizations": [],
    "parents": ["rdm/lookupTypes/Country/DE"],
    "startDate": 0,
    "endDate": 0
  },
  {
    "tenantId": "{{rdmTenant}}",
    "type": "rdm/lookupTypes/State",
    "code": "TH",
    "enabled": true,
    "sourceMappings": [
        {
            "source": "Reltio",
            "values": [
                {
                    "code": "TH",
                    "value": "Thuringia",
                    "enabled": true,
                    "canonicalValue": true,
                    "downStreamDefaultValue": true
                }
            ]
        },
        {
            "source": "ReltioRDM",
            "values": [
                {
                    "code": "TH",
                    "value": "Thuringia",
                    "enabled": true,
                    "canonicalValue": false,
                    "downStreamDefaultValue": true
                }
            ]
        }
    ],
    "localizations": [],
    "parents": ["rdm/lookupTypes/Country/DE"],
    "startDate": 0,
    "endDate": 0
  }
]