[
  {
    "name": "Australian Antarctic Territory",
    "abbreviation": "AAT"
  },
  {
    "name": "Australian Capital Territory",
    "abbreviation": "ACT"
  },
  {
    "name": "Christmas Island",
    "abbreviation": "CX"
  },
  {
    "name": "Cocos (Keeling) Islands",
    "abbreviation": "CC"
  },
  {
    "name": "Coral Sea Islands",
    "abbreviation": "CSI"
  },
  {
    "name": "Heard Island and McDonald Islands",
    "abbreviation": "HM"
  },
  {
    "name": "Jervis Bay Territory",
    "abbreviation": "JBT"
  },
  {
    "name": "New South Wales",
    "abbreviation": "NSW"
  },
  {
    "name": "Norfolk Island",
    "abbreviation": "NF"
  },
  {
    "name": "Northern Territory",
    "abbreviation": "NT"
  },
  {
    "name": "Queensland",
    "abbreviation": "QLD"
  },
  {
    "name": "South Australia",
    "abbreviation": "SA"
  },
  {
    "name": "Tasmania",
    "abbreviation": "TAS"
  },
  {
    "name": "Victoria",
    "abbreviation": "VIC"
  },
  {
    "name": "Western Australia",
    "abbreviation": "WA"
  }
]