[
  {
    "name": "Andhra Pradesh",
    "abbreviation": "AP"
  },
  {
    "name": "Arunachal Pradesh",
    "abbreviation": "AR"
  },
  {
    "name": "Assam",
    "abbreviation": "AS"
  },
  {
    "name": "Bihar",
    "abbreviation": "BR"
  },
  {
    "name": "Chhattisgarh",
    "abbreviation": "CT"
  },
  {
    "name": "Goa",
    "abbreviation": "GA"
  },
  {
    "name": "Gujarat",
    "abbreviation": "GJ"
  },
  {
    "name": "Haryana",
    "abbreviation": "HR"
  },
  {
    "name": "Himachal Pradesh",
    "abbreviation": "HP"
  },
  {
    "name": "Jammu and Kashmir",
    "abbreviation": "JK"
  },
  {
    "name": "Jharkhand",
    "abbreviation": "JH"
  },
  {
    "name": "Karnataka",
    "abbreviation": "KA"
  },
  {
    "name": "Kerala",
    "abbreviation": "KL"
  },
  {
    "name": "Madhya Pradesh",
    "abbreviation": "MP"
  },
  {
    "name": "Maharashtra",
    "abbreviation": "MH"
  },
  {
    "name": "Manipur",
    "abbreviation": "MN"
  },
  {
    "name": "Meghalaya",
    "abbreviation": "ML"
  },
  {
    "name": "Mizoram",
    "abbreviation": "MZ"
  },
  {
    "name": "Nagaland",
    "abbreviation": "NL"
  },
  {
    "name": "Odisha",
    "abbreviation": "OR"
  },
  {
    "name": "Punjab",
    "abbreviation": "PB"
  },
  {
    "name": "Rajasthan",
    "abbreviation": "RJ"
  },
  {
    "name": "Sikkim",
    "abbreviation": "SK"
  },
  {
    "name": "Tamil Nadu",
    "abbreviation": "TN"
  },
  {
    "name": "Telangana",
    "abbreviation": "TG"
  },
  {
    "name": "Tripura",
    "abbreviation": "TR"
  },
  {
    "name": "Uttarakhand",
    "abbreviation": "UT"
  },
  {
    "name": "Uttar Pradesh",
    "abbreviation": "UP"
  },
  {
    "name": "West Bengal",
    "abbreviation": "WB"
  },
  {
    "name": "Andaman and Nicobar Islands",
    "abbreviation": "AN"
  },
  {
    "name": "Chandigarh",
    "abbreviation": "CH"
  },
  {
    "name": "Dadra and Nagar Haveli",
    "abbreviation": "DN"
  },
  {
    "name": "Daman and Diu",
    "abbreviation": "DD"
  },
  {
    "name": "Delhi",
    "abbreviation": "DL"
  },
  {
    "name": "Lakshadweep",
    "abbreviation": "LD"
  },
  {
    "name": "Puducherry",
    "abbreviation": "PY"
  }
]